…
    # A tibble: 1 × 2
      name        height
      <chr>        <int>
    1 Yarael Poof    264

2.6 Найти всех персонажей ниже 170

``` r
starwars %>% filter(height < 170) %>% select(name, height)
```

    # A tibble: 22 × 2
       name                  height
       <chr>                  <int>
     1 C-3PO                    167
     2 R2-D2                     96
     3 Leia Organa              150
     4 Beru Whitesun Lars       165
     5 R5-D4                     97
     6 Yoda                      66
     7 Mon Mothma               150
     8 Wicket Systri Warrick     88
     9 Nien Nunb                160
    10 Watto                    137
    # ℹ 12 more rows
…
    # A tibble: 1 × 2
      eye_color     n
      <chr>     <int>
    1 brown        21

2.11 Подсчитать среднюю длину имени в каждой расе вселенной Звездных
войн.

``` r
starwars %>% mutate(name_length = nchar(name)) %>% group_by(species) %>% summarise(avg_name_length = mean(name_length, na.rm = TRUE))
```

    # A tibble: 38 × 2
       species   avg_name_length
       <chr>               <dbl>
     1 Aleena              12   
     2 Besalisk            15   
     3 Cerean              12   
     4 Chagrian            10   
     5 Clawdite            10   
     6 Droid                4.83
     7 Dug                  7   
     8 Ewok                21   
     9 Geonosian           17   
    10 Gungan              11.7 
    # ℹ 28 more rows
…
